{
  "family": "bilirubin-cdshooks-test",
  "containerDefinitions": [
    {
      "name": "bilirubin-cdshooks-test",
      "image": "hspconsortium/bilirubin-cdshooks:0.5.1-SNAPSHOT",
      "cpu": 0,
      "portMappings": [
        {
          "containerPort": 8088,
          "hostPort": 0,
          "protocol": "tcp"
        }
      ],
      "memoryReservation": 400,
      "logConfiguration": {
        "logDriver": "awslogs",
        "options": {
          "awslogs-group": "/ecs/bilirubin-cdshooks-test",
          "awslogs-region": "us-west-2",
          "awslogs-stream-prefix": "ecs"
        }
      },
      "essential": true,
      "environment": [
        {
          "name": "JASYPT_ENCRYPTOR_PASSWORD",
          "value": ""
        },
        {
          "name": "SPRING_PROFILES_ACTIVE",
          "value": "test"
        }
      ]
    }
  ]
}
